[colorlib.com/polygon/adminty/files/extra-pages/landingpage/index.html]
[backblue.gif]
[fade.gif]
[index.html]
[colorlib.com/polygon/adminty/files/extra-pages/landingpage/assets/logos/favicon.ico]
[colorlib.com/polygon/adminty/files/extra-pages/landingpage/assets/css/bootstrap.min.css]
[colorlib.com/polygon/adminty/files/extra-pages/landingpage/assets/css/animate.css]
[colorlib.com/polygon/adminty/files/extra-pages/landingpage/assets/css/owl.carousel.css]
[colorlib.com/polygon/adminty/files/extra-pages/landingpage/assets/css/owl.theme.css]
[colorlib.com/polygon/adminty/files/extra-pages/landingpage/assets/css/magnific-popup.css]
[colorlib.com/polygon/adminty/files/extra-pages/landingpage/assets/css/animsition.min.css]
[colorlib.com/polygon/adminty/files/extra-pages/landingpage/assets/css/ionicons.min.css]
[colorlib.com/polygon/adminty/files/extra-pages/landingpage/assets/css/style.css]
[colorlib.com/polygon/adminty/files/extra-pages/landingpage/assets/logos/logo.png]
[colorlib.com/polygon/adminty/files/extra-pages/landingpage/assets/images/app_hero_1.png]
[colorlib.com/polygon/adminty/files/extra-pages/landingpage/assets/logos/icon1.png]
[colorlib.com/polygon/adminty/files/extra-pages/landingpage/assets/logos/icon2.png]
[colorlib.com/polygon/adminty/files/extra-pages/landingpage/assets/logos/icon3.png]
[colorlib.com/polygon/adminty/files/extra-pages/landingpage/assets/images/feature_1.png]
[colorlib.com/polygon/adminty/files/extra-pages/landingpage/assets/images/feature_2.png]
[colorlib.com/polygon/adminty/files/extra-pages/landingpage/assets/images/testimonial2.jpg]
[colorlib.com/polygon/adminty/files/extra-pages/landingpage/assets/images/testimonial1.jpg]
[colorlib.com/polygon/adminty/files/extra-pages/landingpage/assets/images/testimonial3.jpg]
[colorlib.com/polygon/adminty/files/extra-pages/landingpage/assets/images/big_feature.png]
[colorlib.com/polygon/adminty/files/extra-pages/landingpage/assets/logos/feature_icon.png]
[colorlib.com/polygon/adminty/files/extra-pages/landingpage/assets/logos/feature_icon_2.png]
[colorlib.com/polygon/adminty/files/extra-pages/landingpage/assets/logos/feature_icon_3.png]
[colorlib.com/polygon/adminty/files/extra-pages/landingpage/assets/logos/cart2.png]
[colorlib.com/polygon/adminty/files/extra-pages/landingpage/assets/logos/cart1.png]
[colorlib.com/polygon/adminty/files/extra-pages/landingpage/assets/logos/logo1.png]
[colorlib.com/polygon/adminty/files/extra-pages/landingpage/assets/logos/logo2.png]
[colorlib.com/polygon/adminty/files/extra-pages/landingpage/assets/logos/logo3.png]
[colorlib.com/polygon/adminty/files/extra-pages/landingpage/assets/logos/logo4.png]
[colorlib.com/polygon/adminty/files/extra-pages/landingpage/assets/logos/logo6.png]
[colorlib.com/polygon/adminty/files/extra-pages/landingpage/assets/logos/logo7.png]
[colorlib.com/polygon/adminty/files/extra-pages/landingpage/assets/js/jquery-2.1.1.js]
[colorlib.com/polygon/adminty/files/extra-pages/landingpage/assets/js/bootstrap.min.js]
[colorlib.com/polygon/adminty/files/extra-pages/landingpage/assets/js/plugins.js]
[colorlib.com/polygon/adminty/files/extra-pages/landingpage/assets/js/menu.js]
[colorlib.com/polygon/adminty/files/extra-pages/landingpage/assets/js/custom.js]
[colorlib.com/polygon/adminty/files/extra-pages/landingpage/index.html]
[ajax.cloudflare.com/cdn-cgi/scripts/95c75768/cloudflare-static/rocket-loader.min.js]
[fonts.googleapis.com/css8a7c.css]
[fonts.googleapis.com/cssae55.css]
[colorlib.com/polygon/adminty/files/extra-pages/landingpage/assets/logos/icon1.png]
[colorlib.com/polygon/adminty/files/extra-pages/landingpage/assets/images/app_hero_1.png]
[colorlib.com/polygon/adminty/files/extra-pages/landingpage/assets/images/feature_1.png]
[colorlib.com/polygon/adminty/files/extra-pages/landingpage/assets/images/feature_2.png]
[colorlib.com/polygon/adminty/files/extra-pages/landingpage/assets/css/bootstrap.min.css]
[colorlib.com/polygon/adminty/files/extra-pages/landingpage/assets/js/custom.js]
[colorlib.com/polygon/adminty/files/extra-pages/landingpage/assets/css/animate.css]
[colorlib.com/polygon/adminty/files/extra-pages/landingpage/assets/js/bootstrap.min.js]
[colorlib.com/polygon/adminty/files/extra-pages/landingpage/assets/js/jquery-2.1.1.js]
[ajax.cloudflare.com/cdn-cgi/scripts/95c75768/cloudflare-static/rocket-loader.min.js]
[colorlib.com/polygon/adminty/files/extra-pages/landingpage/assets/js/plugins.js]
[colorlib.com/polygon/adminty/files/extra-pages/landingpage/assets/css/grabbing.png]
[colorlib.com/polygon/adminty/files/extra-pages/landingpage/assets/css/owl.carousel.css]
[colorlib.com/polygon/adminty/files/extra-pages/landingpage/assets/css/AjaxLoader.gif]
[colorlib.com/polygon/adminty/files/extra-pages/landingpage/assets/css/owl.theme.css]
[colorlib.com/polygon/adminty/files/extra-pages/landingpage/assets/css/magnific-popup.css]
[colorlib.com/polygon/adminty/files/extra-pages/landingpage/assets/css/animsition.min.css]
[colorlib.com/polygon/adminty/files/extra-pages/landingpage/assets/fonts/ionicons28b5.eot]
[colorlib.com/polygon/adminty/files/extra-pages/landingpage/assets/fonts/ionicons28b5.ttf]
[colorlib.com/polygon/adminty/files/extra-pages/landingpage/assets/fonts/ionicons28b5.woff]
[colorlib.com/polygon/adminty/files/extra-pages/landingpage/assets/css/ionicons.min.css]
[colorlib.com/polygon/adminty/files/extra-pages/landingpage/assets/fonts/ionicons28b5.woff]
[colorlib.com/polygon/adminty/files/extra-pages/landingpage/assets/fonts/ionicons28b5.svg]
[colorlib.com/polygon/adminty/files/extra-pages/landingpage/assets/images/hero3.jpg]
[colorlib.com/polygon/adminty/files/extra-pages/landingpage/assets/images/hero.jpg]
[colorlib.com/polygon/adminty/files/extra-pages/landingpage/assets/images/feature_bg.jpg]
[colorlib.com/polygon/adminty/files/extra-pages/landingpage/assets/images/iphone_hand_1.jpg]
[colorlib.com/polygon/adminty/files/extra-pages/landingpage/assets/css/style.css]
[colorlib.com/polygon/adminty/files/extra-pages/landingpage/assets/css/grabbing.html]
[colorlib.com/polygon/adminty/files/extra-pages/landingpage/assets/css/AjaxLoader.html]
[colorlib.com/polygon/adminty/files/extra-pages/landingpage/assets/fonts/ionicons28b5.svg]
